{
	"__ver": "duphelper:86|addons:4",
	"_id": "wqlV8wAtSMO-tsmTSG8t2w",
	"doc": "This screen shows a side-by-side view of objects from a DupeList.  Left-hand side shows \"orig\", and right hand allows you to select from the dups.  You can highlight the different fields, and copy values over in either direction.",
	"key": "duphelper.merge_dups",
	"params": [
		{
			"name": "id",
			"type": "string-like"
		},
		{
			"name": "perspective",
			"type": "string-like"
		}
	],
	"state_name": "merge_dups"
}