{
	"__ver": "duphelper:9",
	"_id": "2pcwt3x4R0GxePyUEXHfTA",
	"applies_to": "server",
	"business_object": {
		"_disp": "DupeSpec",
		"_id": "d_vqHphUQKG5k93G7Y-uoA"
	},
	"doc": "Use this DupeSpec query and compare function to identify duplicates of a specified object",
	"is_static": false,
	"name": "identifyDuplicates",
	"use_injection": true
}