{
	"__ver": "sys-pkg:4|duphelper:16|addons:3",
	"_id": "W7MD5GI_T9qKrsdU6tYSfw",
	"build_config": {
		"exclude": [
			"User",
			"PackageConflict",
			"DupeSpec",
			"DupeList",
			"TestObj2",
			"TestObj1"
		]
	},
	"changelog": [
	],
	"key": "addon.duphelper",
	"manifest": {
		"BusinessObjectDef": {
			"4HAzS7aERKWG52VFbEK4Kw": "sys-pkg:1|duphelper:13|addons:3",
			"d_vqHphUQKG5k93G7Y-uoA": "sys-pkg:3|duphelper:7|addons:3"
		},
		"CodeModule": {
			"9V1M0i45RI-O--05Ao8nBA": "duphelper:38|addons:1",
			"JLnSa13BQN6STX1RVLI3CQ": "sys-pkg:4|duphelper:40"
		},
		"Config": {
			"IdmlQudBTJWAT0olgYIPuQ": "sys-pkg:3|duphelper:7",
			"UCajhSqdRaK0MpHDDmOxXQ": "sys-pkg:6|duphelper:11",
			"cA1x9RaBQ8-TCobyOu7T4w": "duphelper:1",
			"hgoDsyabTXa5FB5By0MZ2g": "sys:2|dbui2:1|duphelper:1"
		},
		"DbuiCustomPage": {
			"Ci34PWWqTZisDmU1wpXGsg": "sys-pkg:3|duphelper:1",
			"t4A_KVvOTgWyHZw-S07YmQ": "duphelper:16",
			"wqlV8wAtSMO-tsmTSG8t2w": "duphelper:86|addons:4"
		},
		"LabelGroup": {
			"2B7gVUfxQ7yIfPNUEPQ4wA": "sys-pkg:1|duphelper:2",
			"CajUxrMTQpqJOHg5Ud119g": "sys-pkg:1|duphelper:2"
		},
		"MemberFunction": {
			"2pcwt3x4R0GxePyUEXHfTA": "duphelper:9",
			"34aDJ3TkQOqY982k69qQNQ": "duphelper:9|addons:2",
			"9GFOUncfR0CPZfBqEgIvpQ": "duphelper:32|addons:1",
			"F93C12fRThKe6wT4C653dg": "duphelper:8|addons:1",
			"bjllI6w4RyCCm1i_2FQ-Gw": "duphelper:20|addons:1",
			"x7Cu8t5CSwum79qdpRzDnA": "duphelper:2|addons:1"
		},
		"UiAction": {
			"vO315gWhS52J-DMGVI94qA": "duphelper:2"
		},
		"WebService": {
			"AtLyLYJySfGhcQOOF0xVXA": "duphelper:4",
			"MbLcge_QQIWbngibKw6h1Q": "sys-pkg:4|duphelper:10",
			"RgXiwLEgSBOgrzPDx-TC-g": "duphelper:9",
			"UYMH6v52Qwe7x-TCJakHYA": "duphelper:9",
			"ZbtAWuaPSTybQBoMdOn9hg": "sys-pkg:5|duphelper:2",
			"g0sZRYM7TgSAP9o4uxbKoA": "sys-pkg:4|duphelper:2",
			"pyOeqQBdThuPeanCbTNXRg": "duphelper:1",
			"tWTm6-MCR6KOZOqLrXkBzw": "sys-pkg:2|duphelper:26"
		}
	},
	"name": "Duplicate Helper",
	"package_file": {
		"attachment_id": "N4rURNN-SrymdfPBGbeBeA",
		"filename": "addon.duphelper.0.18.0.json",
		"type": "application/json"
	},
	"version": "0.18.0"
}